This file contains any messages produced by compilers while
running configure, to aid debugging if configure makes a mistake.

It was created by configure, which was
generated by GNU Autoconf 2.58.  Invocation command line was

  $ ./configure 

## --------- ##
## Platform. ##
## --------- ##

hostname = chenseng-ThinkPad-T410
uname -m = x86_64
uname -r = 3.2.0-58-generic
uname -s = Linux
uname -v = #88-Ubuntu SMP Tue Dec 3 17:37:58 UTC 2013

/usr/bin/uname -p = unknown
/bin/uname -X     = unknown

/bin/arch              = unknown
/usr/bin/arch -k       = unknown
/usr/convex/getsysinfo = unknown
hostinfo               = unknown
/bin/machine           = unknown
/usr/bin/oslevel       = unknown
/bin/universe          = unknown

PATH: /home/chenseng/.nvm/v0.8.12/bin
PATH: /home/chenseng/.rvm/gems/ruby-1.9.3-p392@verboice/bin
PATH: /home/chenseng/.rvm/gems/ruby-1.9.3-p392@global/bin
PATH: /home/chenseng/.rvm/rubies/ruby-1.9.3-p392/bin
PATH: /home/chenseng/.rvm/bin
PATH: /usr/lib/lightdm/lightdm
PATH: /usr/local/sbin
PATH: /usr/local/bin
PATH: /usr/sbin
PATH: /usr/bin
PATH: /sbin
PATH: /bin
PATH: /usr/games


## ----------- ##
## Core tests. ##
## ----------- ##

configure:1535: checking for a BSD-compatible install
configure:1590: result: /usr/bin/install -c
configure:1601: checking whether build environment is sane
configure:1644: result: yes
configure:1677: checking for gawk
configure:1706: result: no
configure:1677: checking for mawk
configure:1693: found /usr/bin/mawk
configure:1703: result: mawk
configure:1713: checking whether make sets $(MAKE)
configure:1733: result: yes
configure:1913: checking for style of include used by make
configure:1941: result: GNU
configure:2012: checking for gcc
configure:2028: found /usr/bin/gcc
configure:2038: result: gcc
configure:2282: checking for C compiler version
configure:2285: gcc --version </dev/null >&5
gcc (Ubuntu/Linaro 4.6.3-1ubuntu5) 4.6.3
Copyright (C) 2011 Free Software Foundation, Inc.
This is free software; see the source for copying conditions.  There is NO
warranty; not even for MERCHANTABILITY or FITNESS FOR A PARTICULAR PURPOSE.

configure:2288: $? = 0
configure:2290: gcc -v </dev/null >&5
Using built-in specs.
COLLECT_GCC=gcc
COLLECT_LTO_WRAPPER=/usr/lib/gcc/x86_64-linux-gnu/4.6/lto-wrapper
Target: x86_64-linux-gnu
Configured with: ../src/configure -v --with-pkgversion='Ubuntu/Linaro 4.6.3-1ubuntu5' --with-bugurl=file:///usr/share/doc/gcc-4.6/README.Bugs --enable-languages=c,c++,fortran,objc,obj-c++ --prefix=/usr --program-suffix=-4.6 --enable-shared --enable-linker-build-id --with-system-zlib --libexecdir=/usr/lib --without-included-gettext --enable-threads=posix --with-gxx-include-dir=/usr/include/c++/4.6 --libdir=/usr/lib --enable-nls --with-sysroot=/ --enable-clocale=gnu --enable-libstdcxx-debug --enable-libstdcxx-time=yes --enable-gnu-unique-object --enable-plugin --enable-objc-gc --disable-werror --with-arch-32=i686 --with-tune=generic --enable-checking=release --build=x86_64-linux-gnu --host=x86_64-linux-gnu --target=x86_64-linux-gnu
Thread model: posix
gcc version 4.6.3 (Ubuntu/Linaro 4.6.3-1ubuntu5) 
configure:2293: $? = 0
configure:2295: gcc -V </dev/null >&5
gcc: error: unrecognized option '-V'
gcc: fatal error: no input files
compilation terminated.
configure:2298: $? = 4
configure:2321: checking for C compiler default output file name
configure:2324: gcc -g -O2 -Wall -ansi   conftest.c  >&5
configure:2327: $? = 0
configure:2373: result: a.out
configure:2378: checking whether the C compiler works
configure:2384: ./a.out
configure:2387: $? = 0
configure:2404: result: yes
configure:2411: checking whether we are cross compiling
configure:2413: result: no
configure:2416: checking for suffix of executables
configure:2418: gcc -o conftest -g -O2 -Wall -ansi   conftest.c  >&5
configure:2421: $? = 0
configure:2446: result: 
configure:2452: checking for suffix of object files
configure:2473: gcc -c -g -O2 -Wall -ansi  conftest.c >&5
configure:2476: $? = 0
configure:2498: result: o
configure:2502: checking whether we are using the GNU C compiler
configure:2526: gcc -c -g -O2 -Wall -ansi  conftest.c >&5
configure:2532: $? = 0
configure:2536: test -z 
			 || test ! -s conftest.err
configure:2539: $? = 0
configure:2542: test -s conftest.o
configure:2545: $? = 0
configure:2558: result: yes
configure:2564: checking whether gcc accepts -g
configure:2585: gcc -c -g  conftest.c >&5
configure:2591: $? = 0
configure:2595: test -z 
			 || test ! -s conftest.err
configure:2598: $? = 0
configure:2601: test -s conftest.o
configure:2604: $? = 0
configure:2615: result: yes
configure:2632: checking for gcc option to accept ANSI C
configure:2702: gcc  -c -g -O2 -Wall -ansi  conftest.c >&5
configure:2708: $? = 0
configure:2712: test -z 
			 || test ! -s conftest.err
configure:2715: $? = 0
configure:2718: test -s conftest.o
configure:2721: $? = 0
configure:2739: result: none needed
configure:2757: gcc -c -g -O2 -Wall -ansi  conftest.c >&5
conftest.c:2:3: error: unknown type name 'choke'
conftest.c:2:3: error: expected '=', ',', ';', 'asm' or '__attribute__' at end of input
configure:2763: $? = 1
configure: failed program was:
| #ifndef __cplusplus
|   choke me
| #endif
configure:2898: checking dependency style of gcc
configure:2981: result: gcc3
configure:2999: checking for library containing strerror
configure:3029: gcc -o conftest -g -O2 -Wall -ansi   conftest.c  >&5
configure:3035: $? = 0
configure:3039: test -z 
			 || test ! -s conftest.err
configure:3042: $? = 0
configure:3045: test -s conftest
configure:3048: $? = 0
configure:3118: result: none required
configure:3171: checking for gcc
configure:3197: result: gcc
configure:3441: checking for C compiler version
configure:3444: gcc --version </dev/null >&5
gcc (Ubuntu/Linaro 4.6.3-1ubuntu5) 4.6.3
Copyright (C) 2011 Free Software Foundation, Inc.
This is free software; see the source for copying conditions.  There is NO
warranty; not even for MERCHANTABILITY or FITNESS FOR A PARTICULAR PURPOSE.

configure:3447: $? = 0
configure:3449: gcc -v </dev/null >&5
Using built-in specs.
COLLECT_GCC=gcc
COLLECT_LTO_WRAPPER=/usr/lib/gcc/x86_64-linux-gnu/4.6/lto-wrapper
Target: x86_64-linux-gnu
Configured with: ../src/configure -v --with-pkgversion='Ubuntu/Linaro 4.6.3-1ubuntu5' --with-bugurl=file:///usr/share/doc/gcc-4.6/README.Bugs --enable-languages=c,c++,fortran,objc,obj-c++ --prefix=/usr --program-suffix=-4.6 --enable-shared --enable-linker-build-id --with-system-zlib --libexecdir=/usr/lib --without-included-gettext --enable-threads=posix --with-gxx-include-dir=/usr/include/c++/4.6 --libdir=/usr/lib --enable-nls --with-sysroot=/ --enable-clocale=gnu --enable-libstdcxx-debug --enable-libstdcxx-time=yes --enable-gnu-unique-object --enable-plugin --enable-objc-gc --disable-werror --with-arch-32=i686 --with-tune=generic --enable-checking=release --build=x86_64-linux-gnu --host=x86_64-linux-gnu --target=x86_64-linux-gnu
Thread model: posix
gcc version 4.6.3 (Ubuntu/Linaro 4.6.3-1ubuntu5) 
configure:3452: $? = 0
configure:3454: gcc -V </dev/null >&5
gcc: error: unrecognized option '-V'
gcc: fatal error: no input files
compilation terminated.
configure:3457: $? = 4
configure:3460: checking whether we are using the GNU C compiler
configure:3516: result: yes
configure:3522: checking whether gcc accepts -g
configure:3573: result: yes
configure:3590: checking for gcc option to accept ANSI C
configure:3697: result: none needed
configure:3715: gcc -c -g -O2 -Wall -ansi  conftest.c >&5
conftest.c:2:3: error: unknown type name 'choke'
conftest.c:2:3: error: expected '=', ',', ';', 'asm' or '__attribute__' at end of input
configure:3721: $? = 1
configure: failed program was:
| #ifndef __cplusplus
|   choke me
| #endif
configure:3856: checking dependency style of gcc
configure:3939: result: gcc3
configure:3959: checking for gcc option to accept ANSI C
configure:4022: gcc  -c -g -O2 -Wall -ansi  conftest.c >&5
configure:4028: $? = 0
configure:4032: test -z 
			 || test ! -s conftest.err
configure:4035: $? = 0
configure:4038: test -s conftest.o
configure:4041: $? = 0
configure:4056: result: none needed
configure:4067: checking whether byte ordering is bigendian
configure:4094: gcc -c -g -O2 -Wall -ansi  conftest.c >&5
conftest.c: In function 'main':
conftest.c:18:2: error: unknown type name 'bogus'
conftest.c:18:15: error: expected '=', ',', ';', 'asm' or '__attribute__' before 'macros'
configure:4100: $? = 1
configure: failed program was:
| /* confdefs.h.  */
| 
| #define PACKAGE_NAME ""
| #define PACKAGE_TARNAME ""
| #define PACKAGE_VERSION ""
| #define PACKAGE_STRING ""
| #define PACKAGE_BUGREPORT ""
| #define PACKAGE "sphinx3"
| #define VERSION "0.6"
| /* end confdefs.h.  */
| #include <sys/types.h>
| #include <sys/param.h>
| 
| int
| main ()
| {
| #if !BYTE_ORDER || !BIG_ENDIAN || !LITTLE_ENDIAN
|  bogus endian macros
| #endif
| 
|   ;
|   return 0;
| }
configure:4254: gcc -o conftest -g -O2 -Wall -ansi   conftest.c  >&5
conftest.c: In function 'main':
conftest.c:21:3: warning: implicit declaration of function 'exit' [-Wimplicit-function-declaration]
conftest.c:21:3: warning: incompatible implicit declaration of built-in function 'exit' [enabled by default]
configure:4257: $? = 0
configure:4259: ./conftest
configure:4262: $? = 0
configure:4278: result: no
configure:4302: checking how to run the C preprocessor
configure:4337: gcc -E  conftest.c
configure:4343: $? = 0
configure:4375: gcc -E  conftest.c
conftest.c:11:28: fatal error: ac_nonexistent.h: No such file or directory
compilation terminated.
configure:4381: $? = 1
configure: failed program was:
| /* confdefs.h.  */
| 
| #define PACKAGE_NAME ""
| #define PACKAGE_TARNAME ""
| #define PACKAGE_VERSION ""
| #define PACKAGE_STRING ""
| #define PACKAGE_BUGREPORT ""
| #define PACKAGE "sphinx3"
| #define VERSION "0.6"
| /* end confdefs.h.  */
| #include <ac_nonexistent.h>
configure:4420: result: gcc -E
configure:4444: gcc -E  conftest.c
configure:4450: $? = 0
configure:4482: gcc -E  conftest.c
conftest.c:11:28: fatal error: ac_nonexistent.h: No such file or directory
compilation terminated.
configure:4488: $? = 1
configure: failed program was:
| /* confdefs.h.  */
| 
| #define PACKAGE_NAME ""
| #define PACKAGE_TARNAME ""
| #define PACKAGE_VERSION ""
| #define PACKAGE_STRING ""
| #define PACKAGE_BUGREPORT ""
| #define PACKAGE "sphinx3"
| #define VERSION "0.6"
| /* end confdefs.h.  */
| #include <ac_nonexistent.h>
configure:4532: checking for egrep
configure:4542: result: grep -E
configure:4547: checking for ANSI C header files
configure:4572: gcc -c -g -O2 -Wall -ansi  conftest.c >&5
configure:4578: $? = 0
configure:4582: test -z 
			 || test ! -s conftest.err
configure:4585: $? = 0
configure:4588: test -s conftest.o
configure:4591: $? = 0
configure:4680: gcc -o conftest -g -O2 -Wall -ansi   conftest.c  >&5
conftest.c: In function 'main':
conftest.c:28:7: warning: implicit declaration of function 'exit' [-Wimplicit-function-declaration]
conftest.c:28:7: warning: incompatible implicit declaration of built-in function 'exit' [enabled by default]
configure:4683: $? = 0
configure:4685: ./conftest
configure:4688: $? = 0
configure:4703: result: yes
configure:4714: checking for an ANSI C-conforming const
configure:4781: gcc -c -g -O2 -Wall -ansi  conftest.c >&5
conftest.c: In function 'main':
conftest.c:39:17: warning: unused variable 's' [-Wunused-variable]
conftest.c:59:15: warning: unused variable 'foo' [-Wunused-variable]
conftest.c:26:29: warning: unused variable 'zero' [-Wunused-variable]
conftest.c:20:17: warning: unused variable 'x' [-Wunused-variable]
conftest.c:41:10: warning: 't' is used uninitialized in this function [-Wuninitialized]
conftest.c:56:23: warning: 'b' is used uninitialized in this function [-Wuninitialized]
configure:4787: $? = 0
configure:4791: test -z 
			 || test ! -s conftest.err
configure:4794: $? = 0
configure:4797: test -s conftest.o
configure:4800: $? = 0
configure:4811: result: yes
configure:4835: checking for sys/types.h
configure:4851: gcc -c -g -O2 -Wall -ansi  conftest.c >&5
configure:4857: $? = 0
configure:4861: test -z 
			 || test ! -s conftest.err
configure:4864: $? = 0
configure:4867: test -s conftest.o
configure:4870: $? = 0
configure:4881: result: yes
configure:4835: checking for sys/stat.h
configure:4851: gcc -c -g -O2 -Wall -ansi  conftest.c >&5
configure:4857: $? = 0
configure:4861: test -z 
			 || test ! -s conftest.err
configure:4864: $? = 0
configure:4867: test -s conftest.o
configure:4870: $? = 0
configure:4881: result: yes
configure:4835: checking for stdlib.h
configure:4851: gcc -c -g -O2 -Wall -ansi  conftest.c >&5
configure:4857: $? = 0
configure:4861: test -z 
			 || test ! -s conftest.err
configure:4864: $? = 0
configure:4867: test -s conftest.o
configure:4870: $? = 0
configure:4881: result: yes
configure:4835: checking for string.h
configure:4851: gcc -c -g -O2 -Wall -ansi  conftest.c >&5
configure:4857: $? = 0
configure:4861: test -z 
			 || test ! -s conftest.err
configure:4864: $? = 0
configure:4867: test -s conftest.o
configure:4870: $? = 0
configure:4881: result: yes
configure:4835: checking for memory.h
configure:4851: gcc -c -g -O2 -Wall -ansi  conftest.c >&5
configure:4857: $? = 0
configure:4861: test -z 
			 || test ! -s conftest.err
configure:4864: $? = 0
configure:4867: test -s conftest.o
configure:4870: $? = 0
configure:4881: result: yes
configure:4835: checking for strings.h
configure:4851: gcc -c -g -O2 -Wall -ansi  conftest.c >&5
configure:4857: $? = 0
configure:4861: test -z 
			 || test ! -s conftest.err
configure:4864: $? = 0
configure:4867: test -s conftest.o
configure:4870: $? = 0
configure:4881: result: yes
configure:4835: checking for inttypes.h
configure:4851: gcc -c -g -O2 -Wall -ansi  conftest.c >&5
configure:4857: $? = 0
configure:4861: test -z 
			 || test ! -s conftest.err
configure:4864: $? = 0
configure:4867: test -s conftest.o
configure:4870: $? = 0
configure:4881: result: yes
configure:4835: checking for stdint.h
configure:4851: gcc -c -g -O2 -Wall -ansi  conftest.c >&5
configure:4857: $? = 0
configure:4861: test -z 
			 || test ! -s conftest.err
configure:4864: $? = 0
configure:4867: test -s conftest.o
configure:4870: $? = 0
configure:4881: result: yes
configure:4835: checking for unistd.h
configure:4851: gcc -c -g -O2 -Wall -ansi  conftest.c >&5
configure:4857: $? = 0
configure:4861: test -z 
			 || test ! -s conftest.err
configure:4864: $? = 0
configure:4867: test -s conftest.o
configure:4870: $? = 0
configure:4881: result: yes
configure:4893: checking for size_t
configure:4917: gcc -c -g -O2 -Wall -ansi  conftest.c >&5
configure:4923: $? = 0
configure:4927: test -z 
			 || test ! -s conftest.err
configure:4930: $? = 0
configure:4933: test -s conftest.o
configure:4936: $? = 0
configure:4947: result: yes
configure:4964: checking for memmove
configure:5021: gcc -o conftest -g -O2 -Wall -ansi   conftest.c  >&5
conftest.c:45:6: warning: conflicting types for built-in function 'memmove' [enabled by default]
configure:5027: $? = 0
configure:5031: test -z 
			 || test ! -s conftest.err
configure:5034: $? = 0
configure:5037: test -s conftest
configure:5040: $? = 0
configure:5052: result: yes
configure:4964: checking for bcopy
configure:5021: gcc -o conftest -g -O2 -Wall -ansi   conftest.c  >&5
configure:5027: $? = 0
configure:5031: test -z 
			 || test ! -s conftest.err
configure:5034: $? = 0
configure:5037: test -s conftest
configure:5040: $? = 0
configure:5052: result: yes
configure:5063: checking return type of signal handlers
configure:5094: gcc -c -g -O2 -Wall -ansi  conftest.c >&5
conftest.c: In function 'main':
conftest.c:37:5: warning: unused variable 'i' [-Wunused-variable]
configure:5100: $? = 0
configure:5104: test -z 
			 || test ! -s conftest.err
configure:5107: $? = 0
configure:5110: test -s conftest.o
configure:5113: $? = 0
configure:5124: result: void
configure:5152: checking build system type
configure:5170: result: x86_64-unknown-linux-gnu
configure:5178: checking host system type
configure:5192: result: x86_64-unknown-linux-gnu
configure:5202: checking for log in -lm
configure:5232: gcc -o conftest -g -O2 -Wall -ansi   conftest.c -lm   >&5
conftest.c:31:6: warning: conflicting types for built-in function 'log' [enabled by default]
configure:5238: $? = 0
configure:5242: test -z 
			 || test ! -s conftest.err
configure:5245: $? = 0
configure:5248: test -s conftest
configure:5251: $? = 0
configure:5264: result: yes
configure:5276: checking for r_log in -lg2c
configure:5306: gcc -o conftest -g -O2 -Wall -ansi   conftest.c -lg2c  -lm  >&5
/usr/bin/ld: cannot find -lg2c
collect2: ld returned 1 exit status
configure:5312: $? = 1
configure: failed program was:
| /* confdefs.h.  */
| 
| #define PACKAGE_NAME ""
| #define PACKAGE_TARNAME ""
| #define PACKAGE_VERSION ""
| #define PACKAGE_STRING ""
| #define PACKAGE_BUGREPORT ""
| #define PACKAGE "sphinx3"
| #define VERSION "0.6"
| #define STDC_HEADERS 1
| #define HAVE_SYS_TYPES_H 1
| #define HAVE_SYS_STAT_H 1
| #define HAVE_STDLIB_H 1
| #define HAVE_STRING_H 1
| #define HAVE_MEMORY_H 1
| #define HAVE_STRINGS_H 1
| #define HAVE_INTTYPES_H 1
| #define HAVE_STDINT_H 1
| #define HAVE_UNISTD_H 1
| #define HAVE_MEMMOVE 1
| #define HAVE_BCOPY 1
| #define RETSIGTYPE void
| #define HAVE_LIBM 1
| /* end confdefs.h.  */
| 
| /* Override any gcc2 internal prototype to avoid an error.  */
| #ifdef __cplusplus
| extern "C"
| #endif
| /* We use char because int might match the return type of a gcc2
|    builtin and then its argument prototype would still apply.  */
| char r_log ();
| int
| main ()
| {
| r_log ();
|   ;
|   return 0;
| }
configure:5338: result: no
configure:5350: checking for sgemm_ in -lblas
configure:5380: gcc -o conftest -g -O2 -Wall -ansi   conftest.c -lblas  -lm  >&5
/usr/bin/ld: cannot find -lblas
collect2: ld returned 1 exit status
configure:5386: $? = 1
configure: failed program was:
| /* confdefs.h.  */
| 
| #define PACKAGE_NAME ""
| #define PACKAGE_TARNAME ""
| #define PACKAGE_VERSION ""
| #define PACKAGE_STRING ""
| #define PACKAGE_BUGREPORT ""
| #define PACKAGE "sphinx3"
| #define VERSION "0.6"
| #define STDC_HEADERS 1
| #define HAVE_SYS_TYPES_H 1
| #define HAVE_SYS_STAT_H 1
| #define HAVE_STDLIB_H 1
| #define HAVE_STRING_H 1
| #define HAVE_MEMORY_H 1
| #define HAVE_STRINGS_H 1
| #define HAVE_INTTYPES_H 1
| #define HAVE_STDINT_H 1
| #define HAVE_UNISTD_H 1
| #define HAVE_MEMMOVE 1
| #define HAVE_BCOPY 1
| #define RETSIGTYPE void
| #define HAVE_LIBM 1
| /* end confdefs.h.  */
| 
| /* Override any gcc2 internal prototype to avoid an error.  */
| #ifdef __cplusplus
| extern "C"
| #endif
| /* We use char because int might match the return type of a gcc2
|    builtin and then its argument prototype would still apply.  */
| char sgemm_ ();
| int
| main ()
| {
| sgemm_ ();
|   ;
|   return 0;
| }
configure:5412: result: no
configure:5424: checking for sgesv_ in -llapack
configure:5454: gcc -o conftest -g -O2 -Wall -ansi   conftest.c -llapack  -lm  >&5
/usr/bin/ld: cannot find -llapack
collect2: ld returned 1 exit status
configure:5460: $? = 1
configure: failed program was:
| /* confdefs.h.  */
| 
| #define PACKAGE_NAME ""
| #define PACKAGE_TARNAME ""
| #define PACKAGE_VERSION ""
| #define PACKAGE_STRING ""
| #define PACKAGE_BUGREPORT ""
| #define PACKAGE "sphinx3"
| #define VERSION "0.6"
| #define STDC_HEADERS 1
| #define HAVE_SYS_TYPES_H 1
| #define HAVE_SYS_STAT_H 1
| #define HAVE_STDLIB_H 1
| #define HAVE_STRING_H 1
| #define HAVE_MEMORY_H 1
| #define HAVE_STRINGS_H 1
| #define HAVE_INTTYPES_H 1
| #define HAVE_STDINT_H 1
| #define HAVE_UNISTD_H 1
| #define HAVE_MEMMOVE 1
| #define HAVE_BCOPY 1
| #define RETSIGTYPE void
| #define HAVE_LIBM 1
| /* end confdefs.h.  */
| 
| /* Override any gcc2 internal prototype to avoid an error.  */
| #ifdef __cplusplus
| extern "C"
| #endif
| /* We use char because int might match the return type of a gcc2
|    builtin and then its argument prototype would still apply.  */
| char sgesv_ ();
| int
| main ()
| {
| sgesv_ ();
|   ;
|   return 0;
| }
configure:5486: result: no
configure:5827: checking sys/soundcard.h usability
configure:5839: gcc -c -g -O2 -Wall -ansi  conftest.c >&5
configure:5845: $? = 0
configure:5849: test -z 
			 || test ! -s conftest.err
configure:5852: $? = 0
configure:5855: test -s conftest.o
configure:5858: $? = 0
configure:5868: result: yes
configure:5872: checking sys/soundcard.h presence
configure:5882: gcc -E  conftest.c
configure:5888: $? = 0
configure:5908: result: yes
configure:5943: checking for sys/soundcard.h
configure:5950: result: yes
configure:6238: checking for perl
configure:6256: found /usr/bin/perl
configure:6268: result: /usr/bin/perl
configure:6277: checking for csh
configure:6310: result: no
configure:6396: checking for a sed that does not truncate output
configure:6450: result: /bin/sed
configure:6464: checking for ld used by gcc
configure:6531: result: /usr/bin/ld
configure:6540: checking if the linker (/usr/bin/ld) is GNU ld
configure:6555: result: yes
configure:6560: checking for /usr/bin/ld option to reload object files
configure:6567: result: -r
configure:6576: checking for BSD-compatible nm
configure:6618: result: /usr/bin/nm -B
configure:6622: checking whether ln -s works
configure:6626: result: yes
configure:6633: checking how to recognise dependent libraries
configure:6833: result: file_magic ELF [0-9][0-9]*-bit [LM]SB (shared object|dynamic lib )
configure:6917: gcc -c -g -O2 -Wall -ansi -DSYS_SOUNDCARD_H -DAD_BACKEND_OSS  conftest.c >&5
configure:6920: $? = 0
configure:7055: checking dlfcn.h usability
configure:7067: gcc -c -g -O2 -Wall -ansi -DSYS_SOUNDCARD_H -DAD_BACKEND_OSS  conftest.c >&5
configure:7073: $? = 0
configure:7077: test -z 
			 || test ! -s conftest.err
configure:7080: $? = 0
configure:7083: test -s conftest.o
configure:7086: $? = 0
configure:7096: result: yes
configure:7100: checking dlfcn.h presence
configure:7110: gcc -E  conftest.c
configure:7116: $? = 0
configure:7136: result: yes
configure:7171: checking for dlfcn.h
configure:7178: result: yes
configure:7243: checking for g++
configure:7259: found /usr/bin/g++
configure:7269: result: g++
configure:7285: checking for C++ compiler version
configure:7288: g++ --version </dev/null >&5
g++ (Ubuntu/Linaro 4.6.3-1ubuntu5) 4.6.3
Copyright (C) 2011 Free Software Foundation, Inc.
This is free software; see the source for copying conditions.  There is NO
warranty; not even for MERCHANTABILITY or FITNESS FOR A PARTICULAR PURPOSE.

configure:7291: $? = 0
configure:7293: g++ -v </dev/null >&5
Using built-in specs.
COLLECT_GCC=g++
COLLECT_LTO_WRAPPER=/usr/lib/gcc/x86_64-linux-gnu/4.6/lto-wrapper
Target: x86_64-linux-gnu
Configured with: ../src/configure -v --with-pkgversion='Ubuntu/Linaro 4.6.3-1ubuntu5' --with-bugurl=file:///usr/share/doc/gcc-4.6/README.Bugs --enable-languages=c,c++,fortran,objc,obj-c++ --prefix=/usr --program-suffix=-4.6 --enable-shared --enable-linker-build-id --with-system-zlib --libexecdir=/usr/lib --without-included-gettext --enable-threads=posix --with-gxx-include-dir=/usr/include/c++/4.6 --libdir=/usr/lib --enable-nls --with-sysroot=/ --enable-clocale=gnu --enable-libstdcxx-debug --enable-libstdcxx-time=yes --enable-gnu-unique-object --enable-plugin --enable-objc-gc --disable-werror --with-arch-32=i686 --with-tune=generic --enable-checking=release --build=x86_64-linux-gnu --host=x86_64-linux-gnu --target=x86_64-linux-gnu
Thread model: posix
gcc version 4.6.3 (Ubuntu/Linaro 4.6.3-1ubuntu5) 
configure:7296: $? = 0
configure:7298: g++ -V </dev/null >&5
g++: error: unrecognized option '-V'
g++: fatal error: no input files
compilation terminated.
configure:7301: $? = 4
configure:7304: checking whether we are using the GNU C++ compiler
configure:7328: g++ -c   conftest.cc >&5
configure:7334: $? = 0
configure:7338: test -z 
			 || test ! -s conftest.err
configure:7341: $? = 0
configure:7344: test -s conftest.o
configure:7347: $? = 0
configure:7360: result: yes
configure:7366: checking whether g++ accepts -g
configure:7387: g++ -c -g  conftest.cc >&5
configure:7393: $? = 0
configure:7397: test -z 
			 || test ! -s conftest.err
configure:7400: $? = 0
configure:7403: test -s conftest.o
configure:7406: $? = 0
configure:7417: result: yes
configure:7459: g++ -c -g -O2  conftest.cc >&5
configure:7465: $? = 0
configure:7469: test -z 
			 || test ! -s conftest.err
configure:7472: $? = 0
configure:7475: test -s conftest.o
configure:7478: $? = 0
configure:7504: g++ -c -g -O2  conftest.cc >&5
conftest.cc: In function 'int main()':
conftest.cc:30:9: error: 'exit' was not declared in this scope
configure:7510: $? = 1
configure: failed program was:
| /* confdefs.h.  */
| 
| #define PACKAGE_NAME ""
| #define PACKAGE_TARNAME ""
| #define PACKAGE_VERSION ""
| #define PACKAGE_STRING ""
| #define PACKAGE_BUGREPORT ""
| #define PACKAGE "sphinx3"
| #define VERSION "0.6"
| #define STDC_HEADERS 1
| #define HAVE_SYS_TYPES_H 1
| #define HAVE_SYS_STAT_H 1
| #define HAVE_STDLIB_H 1
| #define HAVE_STRING_H 1
| #define HAVE_MEMORY_H 1
| #define HAVE_STRINGS_H 1
| #define HAVE_INTTYPES_H 1
| #define HAVE_STDINT_H 1
| #define HAVE_UNISTD_H 1
| #define HAVE_MEMMOVE 1
| #define HAVE_BCOPY 1
| #define RETSIGTYPE void
| #define HAVE_LIBM 1
| #define HAVE_DLFCN_H 1
| /* end confdefs.h.  */
| 
| int
| main ()
| {
| exit (42);
|   ;
|   return 0;
| }
configure:7459: g++ -c -g -O2  conftest.cc >&5
conftest.cc:26:40: error: 'void std::exit(int)' should have been declared inside 'std'
configure:7465: $? = 1
configure: failed program was:
| /* confdefs.h.  */
| 
| #define PACKAGE_NAME ""
| #define PACKAGE_TARNAME ""
| #define PACKAGE_VERSION ""
| #define PACKAGE_STRING ""
| #define PACKAGE_BUGREPORT ""
| #define PACKAGE "sphinx3"
| #define VERSION "0.6"
| #define STDC_HEADERS 1
| #define HAVE_SYS_TYPES_H 1
| #define HAVE_SYS_STAT_H 1
| #define HAVE_STDLIB_H 1
| #define HAVE_STRING_H 1
| #define HAVE_MEMORY_H 1
| #define HAVE_STRINGS_H 1
| #define HAVE_INTTYPES_H 1
| #define HAVE_STDINT_H 1
| #define HAVE_UNISTD_H 1
| #define HAVE_MEMMOVE 1
| #define HAVE_BCOPY 1
| #define RETSIGTYPE void
| #define HAVE_LIBM 1
| #define HAVE_DLFCN_H 1
| /* end confdefs.h.  */
| extern "C" void std::exit (int) throw (); using std::exit;
| #include <stdlib.h>
| int
| main ()
| {
| exit (42);
|   ;
|   return 0;
| }
configure:7459: g++ -c -g -O2  conftest.cc >&5
conftest.cc:26:31: error: 'void std::exit(int)' should have been declared inside 'std'
In file included from conftest.cc:27:0:
/usr/include/stdlib.h:544:70: error: declaration of 'void std::exit(int) throw ()' has a different exception specifier
conftest.cc:26:17: error: from previous declaration 'void std::exit(int)'
configure:7465: $? = 1
configure: failed program was:
| /* confdefs.h.  */
| 
| #define PACKAGE_NAME ""
| #define PACKAGE_TARNAME ""
| #define PACKAGE_VERSION ""
| #define PACKAGE_STRING ""
| #define PACKAGE_BUGREPORT ""
| #define PACKAGE "sphinx3"
| #define VERSION "0.6"
| #define STDC_HEADERS 1
| #define HAVE_SYS_TYPES_H 1
| #define HAVE_SYS_STAT_H 1
| #define HAVE_STDLIB_H 1
| #define HAVE_STRING_H 1
| #define HAVE_MEMORY_H 1
| #define HAVE_STRINGS_H 1
| #define HAVE_INTTYPES_H 1
| #define HAVE_STDINT_H 1
| #define HAVE_UNISTD_H 1
| #define HAVE_MEMMOVE 1
| #define HAVE_BCOPY 1
| #define RETSIGTYPE void
| #define HAVE_LIBM 1
| #define HAVE_DLFCN_H 1
| /* end confdefs.h.  */
| extern "C" void std::exit (int); using std::exit;
| #include <stdlib.h>
| int
| main ()
| {
| exit (42);
|   ;
|   return 0;
| }
configure:7459: g++ -c -g -O2  conftest.cc >&5
configure:7465: $? = 0
configure:7469: test -z 
			 || test ! -s conftest.err
configure:7472: $? = 0
configure:7475: test -s conftest.o
configure:7478: $? = 0
configure:7504: g++ -c -g -O2  conftest.cc >&5
configure:7510: $? = 0
configure:7514: test -z 
			 || test ! -s conftest.err
configure:7517: $? = 0
configure:7520: test -s conftest.o
configure:7523: $? = 0
configure:7548: checking dependency style of g++
configure:7631: result: gcc3
configure:7653: checking how to run the C++ preprocessor
configure:7684: g++ -E  conftest.cc
configure:7690: $? = 0
configure:7722: g++ -E  conftest.cc
conftest.cc:29:28: fatal error: ac_nonexistent.h: No such file or directory
compilation terminated.
configure:7728: $? = 1
configure: failed program was:
| /* confdefs.h.  */
| 
| #define PACKAGE_NAME ""
| #define PACKAGE_TARNAME ""
| #define PACKAGE_VERSION ""
| #define PACKAGE_STRING ""
| #define PACKAGE_BUGREPORT ""
| #define PACKAGE "sphinx3"
| #define VERSION "0.6"
| #define STDC_HEADERS 1
| #define HAVE_SYS_TYPES_H 1
| #define HAVE_SYS_STAT_H 1
| #define HAVE_STDLIB_H 1
| #define HAVE_STRING_H 1
| #define HAVE_MEMORY_H 1
| #define HAVE_STRINGS_H 1
| #define HAVE_INTTYPES_H 1
| #define HAVE_STDINT_H 1
| #define HAVE_UNISTD_H 1
| #define HAVE_MEMMOVE 1
| #define HAVE_BCOPY 1
| #define RETSIGTYPE void
| #define HAVE_LIBM 1
| #define HAVE_DLFCN_H 1
| #ifdef __cplusplus
| extern "C" void exit (int) throw ();
| #endif
| /* end confdefs.h.  */
| #include <ac_nonexistent.h>
configure:7767: result: g++ -E
configure:7791: g++ -E  conftest.cc
configure:7797: $? = 0
configure:7829: g++ -E  conftest.cc
conftest.cc:29:28: fatal error: ac_nonexistent.h: No such file or directory
compilation terminated.
configure:7835: $? = 1
configure: failed program was:
| /* confdefs.h.  */
| 
| #define PACKAGE_NAME ""
| #define PACKAGE_TARNAME ""
| #define PACKAGE_VERSION ""
| #define PACKAGE_STRING ""
| #define PACKAGE_BUGREPORT ""
| #define PACKAGE "sphinx3"
| #define VERSION "0.6"
| #define STDC_HEADERS 1
| #define HAVE_SYS_TYPES_H 1
| #define HAVE_SYS_STAT_H 1
| #define HAVE_STDLIB_H 1
| #define HAVE_STRING_H 1
| #define HAVE_MEMORY_H 1
| #define HAVE_STRINGS_H 1
| #define HAVE_INTTYPES_H 1
| #define HAVE_STDINT_H 1
| #define HAVE_UNISTD_H 1
| #define HAVE_MEMMOVE 1
| #define HAVE_BCOPY 1
| #define RETSIGTYPE void
| #define HAVE_LIBM 1
| #define HAVE_DLFCN_H 1
| #ifdef __cplusplus
| extern "C" void exit (int) throw ();
| #endif
| /* end confdefs.h.  */
| #include <ac_nonexistent.h>
configure:7930: checking for g77
configure:7959: result: no
configure:7930: checking for f77
configure:7959: result: no
configure:7930: checking for xlf
configure:7959: result: no
configure:7930: checking for frt
configure:7959: result: no
configure:7930: checking for pgf77
configure:7959: result: no
configure:7930: checking for fort77
configure:7959: result: no
configure:7930: checking for fl32
configure:7959: result: no
configure:7930: checking for af77
configure:7959: result: no
configure:7930: checking for f90
configure:7959: result: no
configure:7930: checking for xlf90
configure:7959: result: no
configure:7930: checking for pgf90
configure:7959: result: no
configure:7930: checking for epcf90
configure:7959: result: no
configure:7930: checking for f95
configure:7959: result: no
configure:7930: checking for fort
configure:7959: result: no
configure:7930: checking for xlf95
configure:7959: result: no
configure:7930: checking for ifc
configure:7959: result: no
configure:7930: checking for efc
configure:7959: result: no
configure:7930: checking for pgf95
configure:7959: result: no
configure:7930: checking for lf95
configure:7959: result: no
configure:7930: checking for gfortran
configure:7959: result: no
configure:7971: checking for Fortran 77 compiler version
configure:7974:  --version </dev/null >&5
./configure: line 7975: --version: command not found
configure:7977: $? = 127
configure:7979:  -v </dev/null >&5
./configure: line 7980: -v: command not found
configure:7982: $? = 127
configure:7984:  -V </dev/null >&5
./configure: line 7985: -V: command not found
configure:7987: $? = 127
configure:7995: checking whether we are using the GNU Fortran 77 compiler
configure:8009:  -c  conftest.F >&5
./configure: line 8010: -c: command not found
configure:8015: $? = 127
configure: failed program was:
|       program main
| #ifndef __GNUC__
|        choke me
| #endif
| 
|       end
configure:8041: result: no
configure:8047: checking whether  accepts -g
configure:8059:  -c -g conftest.f >&5
./configure: line 8060: -c: command not found
configure:8065: $? = 127
configure: failed program was:
|       program main
| 
|       end
configure:8090: result: no
configure:8120: checking the maximum length of command line arguments
configure:8179: result: 32768
configure:8190: checking command to parse /usr/bin/nm -B output from gcc object
configure:8279: gcc -c -g -O2 -Wall -ansi -DSYS_SOUNDCARD_H -DAD_BACKEND_OSS  conftest.c >&5
configure:8282: $? = 0
configure:8286: /usr/bin/nm -B conftest.o \| sed -n -e 's/^.*[ 	]\([ABCDGISTW][ABCDGISTW]*\)[ 	][ 	]*\(\)\([_A-Za-z][_A-Za-z0-9]*\)$/\1 \2\3 \3/p' \> conftest.nm
configure:8289: $? = 0
configure:8341: gcc -o conftest -g -O2 -Wall -ansi -DSYS_SOUNDCARD_H -DAD_BACKEND_OSS   conftest.c conftstm.o >&5
configure:8344: $? = 0
configure:8382: result: ok
configure:8386: checking for objdir
configure:8401: result: .libs
configure:8491: checking for ar
configure:8507: found /usr/bin/ar
configure:8518: result: ar
configure:8571: checking for ranlib
configure:8587: found /usr/bin/ranlib
configure:8598: result: ranlib
configure:8651: checking for strip
configure:8667: found /usr/bin/strip
configure:8678: result: strip
configure:8732: checking for file
configure:8785: result: /usr/bin/file
configure:8940: checking if gcc static flag  works
configure:8963: result: yes
configure:8980: checking if gcc supports -fno-rtti -fno-exceptions
configure:8998: gcc -c -g -O2 -Wall -ansi -DSYS_SOUNDCARD_H -DAD_BACKEND_OSS  -fno-rtti -fno-exceptions conftest.c >&5
cc1: warning: command line option '-fno-rtti' is valid for C++/ObjC++ but not for C [enabled by default]
configure:9002: $? = 0
configure:9013: result: no
configure:9028: checking for gcc option to produce PIC
configure:9205: result: -fPIC
configure:9212: checking if gcc PIC flag -fPIC works
configure:9230: gcc -c -g -O2 -Wall -ansi -DSYS_SOUNDCARD_H -DAD_BACKEND_OSS  -fPIC -DPIC conftest.c >&5
configure:9234: $? = 0
configure:9245: result: yes
configure:9269: checking if gcc supports -c -o file.o
configure:9297: gcc -c -g -O2 -Wall -ansi -DSYS_SOUNDCARD_H -DAD_BACKEND_OSS  -o out/conftest2.o conftest.c >&5
configure:9301: $? = 0
configure:9318: result: yes
configure:9344: checking whether the gcc linker (/usr/bin/ld -m elf_x86_64) supports shared libraries
configure:10158: result: yes
configure:10184: checking whether -lc should be explicitly linked in
configure:10189: gcc -c -g -O2 -Wall -ansi -DSYS_SOUNDCARD_H -DAD_BACKEND_OSS  conftest.c >&5
configure:10192: $? = 0
configure:10206: gcc -shared conftest.o  -v -Wl,-soname -Wl,conftest -o conftest 2\>\&1 \| grep  -lc  \>/dev/null 2\>\&1
configure:10209: $? = 0
configure:10221: result: no
configure:10229: checking how to hardcode library paths into programs
configure:10254: result: immediate
configure:10268: checking whether stripping libraries is possible
configure:10273: result: yes
configure:10295: checking dynamic linker characteristics
configure:10806: result: GNU/Linux ld.so
configure:11618: checking if libtool supports shared libraries
configure:11620: result: yes
configure:11623: checking whether to build shared libraries
configure:11672: result: yes
configure:11675: checking whether to build static libraries
configure:11679: result: yes
configure:11770: creating libtool
configure:12314: checking for ld used by g++
configure:12381: result: /usr/bin/ld -m elf_x86_64
configure:12390: checking if the linker (/usr/bin/ld -m elf_x86_64) is GNU ld
configure:12405: result: no
configure:12456: checking whether the g++ linker (/usr/bin/ld -m elf_x86_64) supports shared libraries
configure:13271: result: yes
configure:13289: g++ -c -g -O2  conftest.cc >&5
configure:13292: $? = 0
configure:13388: checking for g++ option to produce PIC
configure:13640: result: -fPIC
configure:13647: checking if g++ PIC flag -fPIC works
configure:13665: g++ -c -g -O2  -fPIC -DPIC conftest.cc >&5
configure:13669: $? = 0
configure:13680: result: yes
configure:13704: checking if g++ supports -c -o file.o
configure:13732: g++ -c -g -O2  -o out/conftest2.o conftest.cc >&5
configure:13736: $? = 0
configure:13753: result: yes
configure:13779: checking whether the g++ linker (/usr/bin/ld -m elf_x86_64) supports shared libraries
configure:13804: result: yes
configure:13875: checking how to hardcode library paths into programs
configure:13900: result: immediate
configure:13914: checking whether stripping libraries is possible
configure:13919: result: yes
configure:13941: checking dynamic linker characteristics
configure:14452: result: GNU/Linux ld.so
configure:21687: creating ./config.status

## ---------------------- ##
## Running config.status. ##
## ---------------------- ##

This file was extended by config.status, which was
generated by GNU Autoconf 2.58.  Invocation command line was

  CONFIG_FILES    = 
  CONFIG_HEADERS  = 
  CONFIG_LINKS    = 
  CONFIG_COMMANDS = 
  $ ./config.status 

on chenseng-ThinkPad-T410

config.status:803: creating Makefile
config.status:803: creating src/Makefile
config.status:803: creating src/libs3audio/Makefile
config.status:803: creating src/libs3audio/ad_conf.h
config.status:803: creating src/libs3decoder/Makefile
config.status:803: creating src/libs3decoder/libAPI/Makefile
config.status:803: creating src/libs3decoder/libam/Makefile
config.status:803: creating src/libs3decoder/libcep_feat/Makefile
config.status:803: creating src/libs3decoder/libconfidence/Makefile
config.status:803: creating src/libs3decoder/libcommon/Makefile
config.status:803: creating src/libs3decoder/libdict/Makefile
config.status:803: creating src/libs3decoder/libep/Makefile
config.status:803: creating src/libs3decoder/liblm/Makefile
config.status:803: creating src/libs3decoder/libsearch/Makefile
config.status:803: creating src/libs3decoder/libcfg/Makefile
config.status:803: creating src/libutil/Makefile
config.status:803: creating src/programs/Makefile
config.status:803: creating src/tests/Makefile
config.status:803: creating src/tests/performance/Makefile
config.status:803: creating src/tests/performance/an4/Makefile
config.status:803: creating src/tests/performance/hub4/Makefile
config.status:803: creating src/tests/performance/rm1/Makefile
config.status:803: creating src/tests/performance/wsj20k/Makefile
config.status:803: creating src/tests/performance/wsj5k/Makefile
config.status:803: creating src/tests/performance/tidigits/Makefile
config.status:803: creating src/tests/performance/ti46/Makefile
config.status:803: creating src/tests/performance/Communicator/Makefile
config.status:803: creating src/tests/performance/ICSI/Makefile
config.status:803: creating src/tests/performance/spoke3/Makefile
config.status:803: creating src/tests/programs/Makefile
config.status:803: creating src/tests/regression/Makefile
config.status:803: creating src/tests/regression/checkStyle.sh
config.status:803: creating src/tests/regression/test-livepretend.sh
config.status:803: creating src/tests/regression/test-livepretend-clm.sh
config.status:803: creating src/tests/regression/test-livepretend-mllr.sh
config.status:803: creating src/tests/regression/test-lm_convert.sh
config.status:803: creating src/tests/regression/test-align.sh
config.status:803: creating src/tests/regression/test-align-mllr.sh
config.status:803: creating src/tests/regression/test-allphone.sh
config.status:803: creating src/tests/regression/test-allphone-mllr.sh
config.status:803: creating src/tests/regression/test-astar.sh
config.status:803: creating src/tests/regression/test-astar-clm.sh
config.status:803: creating src/tests/regression/test-cepview.sh
config.status:803: creating src/tests/regression/test-conf.sh
config.status:803: creating src/tests/regression/test-dag.sh
config.status:803: creating src/tests/regression/test-dag-clm.sh
config.status:803: creating src/tests/regression/test-decode_anytopo.sh
config.status:803: creating src/tests/regression/test-decode_anytopo-mllr.sh
config.status:803: creating src/tests/regression/test-decode_anytopo-2ndstage.sh
config.status:803: creating src/tests/regression/test-decode.sh
config.status:803: creating src/tests/regression/test-decode-simple.sh
config.status:803: creating src/tests/regression/test-decode-noncomp.sh
config.status:803: creating src/tests/regression/test-decode-lts.sh
config.status:803: creating src/tests/regression/test-decode-mode2.sh
config.status:803: creating src/tests/regression/test-decode-mode3.sh
config.status:803: creating src/tests/regression/test-decode-mode3-mulmpx.sh
config.status:803: creating src/tests/regression/test-decode-mode3-mpx.sh
config.status:803: creating src/tests/regression/test-decode-mode5.sh
config.status:803: creating src/tests/regression/test-decode-mode5-noncomp.sh
config.status:803: creating src/tests/regression/test-decode-mode1368.sh
config.status:803: creating src/tests/regression/test-decode-mode1369.sh
config.status:803: creating src/tests/regression/test-decode-s3cont.sh
config.status:803: creating src/tests/regression/test-decode-s2semi.sh
config.status:803: creating src/tests/regression/test-decode-clm.sh
config.status:803: creating src/tests/regression/test-decode-mllr.sh
config.status:803: creating src/tests/regression/test-decode-2ndstage.sh
config.status:803: creating src/tests/regression/test-lm_convert-and-decode.sh
config.status:803: creating src/tests/regression/test-dp.sh
config.status:803: creating src/tests/regression/test-ep.sh
config.status:803: creating src/tests/regression/test-gausubvq.sh
config.status:803: creating src/tests/regression/test-wave2feat.sh
config.status:803: creating src/tests/regression/test-wave2feat-dither-seed.sh
config.status:803: creating src/tests/regression/test-wave2feat-dither-rand.sh
config.status:803: creating src/tests/regression/test-wave2feat-logspec.sh
config.status:803: creating src/tests/unit_tests/Makefile
config.status:803: creating src/tests/unit_tests/test_case/Makefile
config.status:803: creating src/tests/unit_tests/test_hash/Makefile
config.status:803: creating src/tests/unit_tests/test_logs3/Makefile
config.status:803: creating scripts/Makefile
config.status:803: creating scripts/sphinx3-simple
config.status:803: creating model/Makefile
config.status:803: creating model/ep/Makefile
config.status:803: creating model/hmm/Makefile
config.status:803: creating model/hmm/hub4_cd_continuous_8gau_1s_c_d_dd/Makefile
config.status:803: creating model/hmm/tidigits/Makefile
config.status:803: creating model/hmm/RM1_cd_semi/Makefile
config.status:803: creating model/lm/Makefile
config.status:803: creating model/lm/an4/Makefile
config.status:803: creating model/lm/an4/args.an4
config.status:803: creating model/lm/an4/args.an4.test
config.status:803: creating model/lm/an4/args.an4.test.cls
config.status:803: creating model/lm/an4/args.an4.test.mllr
config.status:803: creating model/lm/an4/an4.ug.cls.lmctl
config.status:803: creating include/Makefile
config.status:803: creating doc/Makefile
config.status:983: executing depfiles commands

## ---------------- ##
## Cache variables. ##
## ---------------- ##

ac_cv_build=x86_64-unknown-linux-gnu
ac_cv_build_alias=x86_64-unknown-linux-gnu
ac_cv_c_bigendian=no
ac_cv_c_compiler_gnu=yes
ac_cv_c_const=yes
ac_cv_cxx_compiler_gnu=yes
ac_cv_env_CC_set=
ac_cv_env_CC_value=
ac_cv_env_CFLAGS_set=
ac_cv_env_CFLAGS_value=
ac_cv_env_CPPFLAGS_set=
ac_cv_env_CPPFLAGS_value=
ac_cv_env_CPP_set=
ac_cv_env_CPP_value=
ac_cv_env_CXXCPP_set=
ac_cv_env_CXXCPP_value=
ac_cv_env_CXXFLAGS_set=
ac_cv_env_CXXFLAGS_value=
ac_cv_env_CXX_set=
ac_cv_env_CXX_value=
ac_cv_env_F77_set=
ac_cv_env_F77_value=
ac_cv_env_FFLAGS_set=
ac_cv_env_FFLAGS_value=
ac_cv_env_LDFLAGS_set=
ac_cv_env_LDFLAGS_value=
ac_cv_env_build_alias_set=
ac_cv_env_build_alias_value=
ac_cv_env_host_alias_set=
ac_cv_env_host_alias_value=
ac_cv_env_target_alias_set=
ac_cv_env_target_alias_value=
ac_cv_exeext=
ac_cv_f77_compiler_gnu=no
ac_cv_func_bcopy=yes
ac_cv_func_memmove=yes
ac_cv_header_dlfcn_h=yes
ac_cv_header_inttypes_h=yes
ac_cv_header_memory_h=yes
ac_cv_header_stdc=yes
ac_cv_header_stdint_h=yes
ac_cv_header_stdlib_h=yes
ac_cv_header_string_h=yes
ac_cv_header_strings_h=yes
ac_cv_header_sys_soundcard_h=yes
ac_cv_header_sys_stat_h=yes
ac_cv_header_sys_types_h=yes
ac_cv_header_unistd_h=yes
ac_cv_host=x86_64-unknown-linux-gnu
ac_cv_host_alias=x86_64-unknown-linux-gnu
ac_cv_lib_blas_sgemm_=no
ac_cv_lib_g2c_r_log=no
ac_cv_lib_lapack_sgesv_=no
ac_cv_lib_m_log=yes
ac_cv_objext=o
ac_cv_path_PERL=/usr/bin/perl
ac_cv_path_install='/usr/bin/install -c'
ac_cv_prog_AWK=mawk
ac_cv_prog_CPP='gcc -E'
ac_cv_prog_CXXCPP='g++ -E'
ac_cv_prog_ac_ct_AR=ar
ac_cv_prog_ac_ct_CC=gcc
ac_cv_prog_ac_ct_CXX=g++
ac_cv_prog_ac_ct_RANLIB=ranlib
ac_cv_prog_ac_ct_STRIP=strip
ac_cv_prog_cc_g=yes
ac_cv_prog_cc_stdc=
ac_cv_prog_cxx_g=yes
ac_cv_prog_egrep='grep -E'
ac_cv_prog_f77_g=no
ac_cv_prog_make_make_set=yes
ac_cv_search_strerror='none required'
ac_cv_type_signal=void
ac_cv_type_size_t=yes
am_cv_CC_dependencies_compiler_type=gcc3
am_cv_CXX_dependencies_compiler_type=gcc3
am_cv_prog_cc_stdc=
lt_cv_deplibs_check_method='file_magic ELF [0-9][0-9]*-bit [LM]SB (shared object|dynamic lib )'
lt_cv_file_magic_cmd='$MAGIC_CMD'
lt_cv_file_magic_test_file='/lib/libc.so* /lib/libc-*.so'
lt_cv_ld_reload_flag=-r
lt_cv_objdir=.libs
lt_cv_path_LD=/usr/bin/ld
lt_cv_path_LDCXX='/usr/bin/ld -m elf_x86_64'
lt_cv_path_MAGIC_CMD=/usr/bin/file
lt_cv_path_NM='/usr/bin/nm -B'
lt_cv_path_SED=/bin/sed
lt_cv_prog_compiler_c_o=yes
lt_cv_prog_compiler_c_o_CXX=yes
lt_cv_prog_compiler_rtti_exceptions=no
lt_cv_prog_gnu_ld=yes
lt_cv_prog_gnu_ldcxx=no
lt_cv_sys_global_symbol_pipe='sed -n -e '\''s/^.*[ 	]\([ABCDGISTW][ABCDGISTW]*\)[ 	][ 	]*\(\)\([_A-Za-z][_A-Za-z0-9]*\)$/\1 \2\3 \3/p'\'''
lt_cv_sys_global_symbol_to_c_name_address='sed -n -e '\''s/^: \([^ ]*\) $/  {\"\1\", (lt_ptr) 0},/p'\'' -e '\''s/^[BCDEGRST] \([^ ]*\) \([^ ]*\)$/  {"\2", (lt_ptr) \&\2},/p'\'''
lt_cv_sys_global_symbol_to_cdecl='sed -n -e '\''s/^. .* \(.*\)$/extern int \1;/p'\'''
lt_cv_sys_max_cmd_len=32768
lt_lt_cv_prog_compiler_c_o='"yes"'
lt_lt_cv_prog_compiler_c_o_CXX='"yes"'
lt_lt_cv_sys_global_symbol_pipe='"sed -n -e '\''s/^.*[ 	]\\([ABCDGISTW][ABCDGISTW]*\\)[ 	][ 	]*\\(\\)\\([_A-Za-z][_A-Za-z0-9]*\\)\$/\\1 \\2\\3 \\3/p'\''"'
lt_lt_cv_sys_global_symbol_to_c_name_address='"sed -n -e '\''s/^: \\([^ ]*\\) \$/  {\\\"\\1\\\", (lt_ptr) 0},/p'\'' -e '\''s/^[BCDEGRST] \\([^ ]*\\) \\([^ ]*\\)\$/  {\"\\2\", (lt_ptr) \\&\\2},/p'\''"'
lt_lt_cv_sys_global_symbol_to_cdecl='"sed -n -e '\''s/^. .* \\(.*\\)\$/extern int \\1;/p'\''"'

## ----------------- ##
## Output variables. ##
## ----------------- ##

ACLOCAL='${SHELL} /home/chenseng/projects/verboice-git/script/InsteDD/sphinx3/sphinx3-0.6/missing --run aclocal-1.7'
AMDEPBACKSLASH='\'
AMDEP_FALSE='#'
AMDEP_TRUE=''
AMTAR='${SHELL} /home/chenseng/projects/verboice-git/script/InsteDD/sphinx3/sphinx3-0.6/missing --run tar'
AR='ar'
AUTOCONF='${SHELL} /home/chenseng/projects/verboice-git/script/InsteDD/sphinx3/sphinx3-0.6/missing --run autoconf'
AUTOHEADER='${SHELL} /home/chenseng/projects/verboice-git/script/InsteDD/sphinx3/sphinx3-0.6/missing --run autoheader'
AUTOMAKE='${SHELL} /home/chenseng/projects/verboice-git/script/InsteDD/sphinx3/sphinx3-0.6/missing --run automake-1.7'
AWK='mawk'
CC='gcc'
CCDEPMODE='depmode=gcc3'
CFLAGS='-g -O2 -Wall -ansi -DSYS_SOUNDCARD_H -DAD_BACKEND_OSS'
CPP='gcc -E'
CPPFLAGS=''
CSH=''
CXX='g++'
CXXCPP='g++ -E'
CXXDEPMODE='depmode=gcc3'
CXXFLAGS='-g -O2'
CYGPATH_W='echo'
DEFS='-DPACKAGE_NAME=\"\" -DPACKAGE_TARNAME=\"\" -DPACKAGE_VERSION=\"\" -DPACKAGE_STRING=\"\" -DPACKAGE_BUGREPORT=\"\" -DPACKAGE=\"sphinx3\" -DVERSION=\"0.6\" -DSTDC_HEADERS=1 -DHAVE_SYS_TYPES_H=1 -DHAVE_SYS_STAT_H=1 -DHAVE_STDLIB_H=1 -DHAVE_STRING_H=1 -DHAVE_MEMORY_H=1 -DHAVE_STRINGS_H=1 -DHAVE_INTTYPES_H=1 -DHAVE_STDINT_H=1 -DHAVE_UNISTD_H=1 -DHAVE_MEMMOVE=1 -DHAVE_BCOPY=1 -DRETSIGTYPE=void -DHAVE_LIBM=1 -DHAVE_DLFCN_H=1 '
DEPDIR='.deps'
ECHO='echo'
ECHO_C=''
ECHO_N='-n'
ECHO_T=''
EGREP='grep -E'
EXEEXT=''
F77=''
FFLAGS=''
INSTALL_DATA='${INSTALL} -m 644'
INSTALL_PROGRAM='${INSTALL}'
INSTALL_SCRIPT='${INSTALL}'
INSTALL_STRIP_PROGRAM='${SHELL} $(install_sh) -c -s'
LDFLAGS=''
LIBOBJS=''
LIBS='-lm '
LIBTOOL='$(SHELL) $(top_builddir)/libtool'
LN_S='ln -s'
LTLIBOBJS=''
MAKEINFO='${SHELL} /home/chenseng/projects/verboice-git/script/InsteDD/sphinx3/sphinx3-0.6/missing --run makeinfo'
OBJEXT='o'
PACKAGE='sphinx3'
PACKAGE_BUGREPORT=''
PACKAGE_NAME=''
PACKAGE_STRING=''
PACKAGE_TARNAME=''
PACKAGE_VERSION=''
PATH_SEPARATOR=':'
PERL='/usr/bin/perl'
RANLIB='ranlib'
SET_MAKE=''
SHELL='/bin/bash'
STRIP='strip'
VERSION='0.6'
ac_ct_AR='ar'
ac_ct_CC='gcc'
ac_ct_CXX='g++'
ac_ct_F77=''
ac_ct_RANLIB='ranlib'
ac_ct_STRIP='strip'
ad_backend='AD_BACKEND_OSS'
ad_files='ad_oss.lo'
ad_libs=''
am__fastdepCC_FALSE='#'
am__fastdepCC_TRUE=''
am__fastdepCXX_FALSE='#'
am__fastdepCXX_TRUE=''
am__include='include'
am__leading_dot='.'
am__quote=''
bindir='${exec_prefix}/bin'
build='x86_64-unknown-linux-gnu'
build_alias=''
build_cpu='x86_64'
build_os='linux-gnu'
build_vendor='unknown'
datadir='${prefix}/share'
docdata='BN_AM_HUB96-97.doc BN_AM_HUB96-97.htm cmdhelp.txt doxygen.cfg doxygen.main images index.html models.html rarrow.gif s3 s3-2.htm s3-2.pdf s3-2.ppt s3-2_files s3-4.pdf s3-4.ppt s3-5.ppt s3-6.ppt s3_codewalk.html s3_description.html s3_fe_spec.pdf s3_overview.html sphinx3.3-6.ppt sphinxman_FAQ.html sphinxman_manual.html sphinxman_misc.html'
exec_prefix='${prefix}'
hmmdata='8gau.6000sen.quant hub4opensrc.6000.mdef mdef means mixture_weights mllr_matrices test-align-mllr.out test-conf.confhypseg test.align.mllr.out test.align.out test.align.phseg test.align.wdseg test.allphone.allp test.allphone.match test.allphone.matchseg test.allphone.mllr.allp test.allphone.mllr.match test.allphone.mllr.matchseg test.allphone.mllr.phlat test.allphone.phlat test.allphone.phone_tg.allp test.allphone.phone_tg.match test.allphone.phone_tg.matchseg test.allphone.phone_tg.mllr.allp test.allphone.phone_tg.mllr.match test.allphone.phone_tg.mllr.matchseg test.allphone.phone_tg.mllr.phlat test.allphone.phone_tg.phlat test.dp.hyp test.dp.ref test.dp.simple.log test.mode1369.dump test.subvq transition_matrices variances'
host='x86_64-unknown-linux-gnu'
host_alias=''
host_cpu='x86_64'
host_os='linux-gnu'
host_vendor='unknown'
includedir='${prefix}/include'
infodir='${prefix}/info'
install_sh='/home/chenseng/projects/verboice-git/script/InsteDD/sphinx3/sphinx3-0.6/install-sh'
libdir='${exec_prefix}/lib'
libexecdir='${exec_prefix}/libexec'
lmdata='README align.correct an4.cls.probdef an4.ctl an4.ctl.platform_independent an4.ctl_lm an4.dict an4.phonelist an4.tg.phone.arpa an4.tg.phone.arpa.DMP an4.tg.phone.arpa.FST an4.tg.phone.arpa.FST.SYM an4.tg.phone.arpa.lm_convert an4.ug.cls.lm an4.ug.cls.lm.DMP an4.ug.cls.lmctl an4.ug.cls.lmctl an4.ug.lm an4.ug.lm.DMP an4.ug.lm.FST an4.ug.lm.FST.SYM an4.ug.lm.lm_convert args.an4 args.an4 args.an4.test args.an4.test.cls args.an4.test.cls args.an4.test args.an4.test.mllr args.an4.test.mllr args.an4.test.win32 filler.dict pittsburgh.bigendian.mfc pittsburgh.bigendian.raw pittsburgh.lat.gz pittsburgh.littleendian.abcd pittsburgh.littleendian.mfc pittsburgh.littleendian.raw pittsburgh.nbest'
localstatedir='${prefix}/var'
mandir='${prefix}/man'
oldincludedir='/usr/include'
prefix='/usr/local'
program_transform_name='s,x,x,'
sbindir='${exec_prefix}/sbin'
sharedstatedir='${prefix}/com'
sysconfdir='${prefix}/etc'
target_alias=''
tidigitsdata='./wd_dependent_phone.500.mdef ./fillerdict ./dictionary ./test.2.digits.fsg ./tidigits.length.2.regression ./tidigits.length.arb.regression ./tidigits.length.2.result ./wd_dependent_phone.cd_continuous_8gau/mixture_weights.LittleEndian ./wd_dependent_phone.cd_continuous_8gau/variances.LittleEndian ./wd_dependent_phone.cd_continuous_8gau/means.LittleEndian ./wd_dependent_phone.cd_continuous_8gau/transition_matrices.LittleEndian ./test.digits.fsg ./test.iso.digits.fsg ./tidigits.length.1.result ./tidigits.length.1.regression ./tidigits.length.arb.result ./cepstra/man/man.ah.4625a.mfc ./cepstra/man/man.ah.zb.mfc ./cepstra/man/man.ah.111a.mfc ./cepstra/man/man.ah.2934za.mfc ./cepstra/man/man.ah.63a.mfc ./cepstra/man/man.ah.9b.mfc ./cepstra/man/man.ah.6o838a.mfc ./cepstra/man/man.ah.3oa.mfc ./cepstra/man/man.ah.o789a.mfc ./cepstra/man/man.ah.z4548a.mfc ./cepstra/man/man.ah.35oa.mfc ./cepstra/man/man.ah.8b.mfc ./cepstra/man/man.ah.75913a.mfc ./cepstra/man/man.ah.588zza.mfc ./cepstra/man/man.ah.1b.mfc ./cepstra/man/man.ah.844o1a.mfc ./cepstra/woman/woman.ak.276317oa.mfc ./cepstra/woman/woman.ak.ooa.mfc ./cepstra/woman/woman.ak.48z66zza.mfc ./cepstra/woman/woman.ak.3z3z9a.mfc ./cepstra/woman/woman.ak.99731a.mfc ./cepstra/woman/woman.ak.334a.mfc ./cepstra/woman/woman.ak.5z874a.mfc ./cepstra/woman/woman.ak.1b.mfc ./cepstra/woman/woman.ak.o69a.mfc ./cepstra/woman/woman.ak.za.mfc ./cepstra/woman/woman.ak.532a.mfc ./cepstra/woman/woman.ak.8a.mfc ./cepstra/woman/woman.ak.75a.mfc ./cepstra/woman/woman.ak.6728za.mfc ./cepstra/woman/woman.ak.84983a.mfc'

## ----------- ##
## confdefs.h. ##
## ----------- ##

#define HAVE_BCOPY 1
#define HAVE_DLFCN_H 1
#define HAVE_INTTYPES_H 1
#define HAVE_LIBM 1
#define HAVE_MEMMOVE 1
#define HAVE_MEMORY_H 1
#define HAVE_STDINT_H 1
#define HAVE_STDLIB_H 1
#define HAVE_STRINGS_H 1
#define HAVE_STRING_H 1
#define HAVE_SYS_STAT_H 1
#define HAVE_SYS_TYPES_H 1
#define HAVE_UNISTD_H 1
#define PACKAGE "sphinx3"
#define PACKAGE_BUGREPORT ""
#define PACKAGE_NAME ""
#define PACKAGE_STRING ""
#define PACKAGE_TARNAME ""
#define PACKAGE_VERSION ""
#define RETSIGTYPE void
#define STDC_HEADERS 1
#define VERSION "0.6"
#endif
#ifdef __cplusplus
extern "C" void exit (int) throw ();

configure: exit 0
